﻿{
    "L_CONTENT_PANE" : "Inhalt",
    
    "L_EXPORT_PANE" : "Export",
    
    "L_CHECK_THE_BOX" : "Ankreuzen",
    
    "L_CHECK_THE_BOX_TEXT" : "Kreuzt ein Kästchen an.",
    
    "L_PASTE_DIALOG" : "Kopieren & Einfügen",
    
    "L_PASTE_DIALOG_TEXT" : "Kopieren & Einfügen"
}