{
    "toolbar": {
        "ribbons": {
            "options": {
                "sortabletabs": "false"
            },
            "elements": {
                "L_EDIT_TAB": {
                    "L_COLLABORATION_PANE": {
                        "subpanels": [
                            {
                                "size": "largePanel",
                                "displaytext": "true",
                                "actions": [
                                    "toggle-collab-mode"
                                ]
                            }
                        ]
                    },
					"L_CLIPBOARD_PANE": {
                        "subpanels": [
                            {
                                "size": "largePanel",
                                "displaytext": "true",
                                "actions": [
                                    "paste-dialog"
                                ]
                            }
                        ]
                    },
                    "L_CONTENT_PANE": {
                        "subpanels": [
                            {
                                "size": "mediumPanel",
                                "actions": [
                                    "undo",
                                    "redo"
                                ]
                            },
                            {
                                "size": "largePanel",
                                "displaytext": "true",
                                "actions": [
                                     "insert-image-dialog",
                                     "check-the-box",
                                     "insert-special-character-dialog"
                                ]
                            }
                        ]
                    },
                    "L_VIEW_PANE": {
                        "subpanels": [
                            {
                                "size": "mediumPanel",
                                "actions": [
                                    "toggle-read-only-view"
                                ]
                            },
                            {
                                "size": "mediumPanel",
                                "actions": [
                                    "zoom-mode-window-width-client",
                                    "zoom-mode-window-height-client"
                                ]
                            },
                            {
                                "size": "mediumPanel",
                                "actions": [
                                    "increase-zoom-client",
                                    "decrease-zoom-client",
                                    "zoom-100-client"
                                ]
                            }
                        ]
                    },
                    "L_EXPORT_PANE": {
                        "subpanels": [
                            {
                                "size": "largePanel",
                                "displaytext": "true",
                                "actions": [
                                    "create-pdf"
                                ]
                            }
                        ]
                    }
                }
            }
        }
    },
    "contextmenu": [
        [
            "insert-special-character-dialog"
        ],
        [
            "check-the-box"
        ],
        [
            "insert-image-dialog"
        ],
        [
            "image-properties-dialog"
        ]
    ]
 }