{
    "toolbar": {
        "quickactions": [
            {
                "actions": [
                    "close"
                ]
            }
        ],
        "ribbons": {
            "options": {
                "sortabletabs": "true"
            },
            "elements": {
                "L_COMPARISON_TAB": {
                    "index" : 0,
                    "L_COMPARISON_PANE": {
                        "index" : 1,
                        "subpanels": [
                            {
                                "size": "large",
                                "showtext": "true",
                                "actions": [
                                    "show-changes-disabled"
                                ]
                            },
                            {
                                "size": "medium",
                                "showtext": "true",
                                "actions": [
                                    "show-changes-insertions",
                                    "show-changes-deletions"
                                ]
                            },
                            {
                                "size": "medium",
                                "actions": [
                                    "goto-next-diff",
                                    "goto-prev-diff"
                                ]
                            },
                            {
                                "size": "tiny",
                                "showtext": "true",
                                "actions": [
                                    "accept",
                                    "accept-gonext",
                                    "accept-all"
                                ]
                            },
                            {
                                "size": "tiny",
                                "showtext": "true",
                                "actions": [
                                    "reject",
                                    "reject-gonext",
                                    "reject-all"
                                ]
                            }
                        ]
                    }
                }
            }
        }
    }
}