{
    "new-document": {
        "type": "stateless",
        "title": "L_NEW_DOCUMENT",
        "iconText": "L_NEW_DOCUMENT_TEXT"
    },
    "insert-date": {
        "type": "stateless",
        "title": "L_INSERT_DATE",
        "iconText": "L_INSERT_DATE_TEXT",
        "prohibitedContextNames": [
            "picture-context",
            "picture-caption-context"
        ]
    },
    "list-ordered": {
        "type": "server",
        "title": "L_LIST_ORDERED",
        "iconText": "L_LIST_ORDERED_TEXT",
        "iconUrl": "extensions/icons/list-ordered.png",
        "prohibitedContextNames": [
            "ro-table-context",
            "ro-container-context",
            "remove-heading-context",
            "ro-heading-context",
            "picture-context",
            "picture-caption-context"
        ]
    },
    "toggle-paragraph": {
        "type": "server",
        "title": "L_STYLE_TEMPLATE_PARAGRAPH",
        "iconText": "L_STYLE_TEMPLATE_PARAGRAPH_TEXT",
        "iconUrl": "extensions/icons/toggle-paragraph.png"
    },
    "toggle-heading-1": {
        "type": "server",
        "title": "L_STYLE_TEMPLATE_HEADING1",
        "shortcut": "msck 1",
        "macShortcut": "alt F1",
        "iconText": "L_STYLE_TEMPLATE_HEADING1_TEXT",
        "iconUrl": "extensions/icons/toggle-heading-1.png"
    },
    "toggle-heading-2": {
        "type": "server",
        "title": "L_STYLE_TEMPLATE_HEADING2",
        "shortcut": "msck 2",
        "macShortcut": "alt F2",
        "iconText": "L_STYLE_TEMPLATE_HEADING2_TEXT",
        "iconUrl": "extensions/icons/toggle-heading-2.png"
    },
    "insert-special-character-dialog": {
        "title": "L_INSERT_SPECIAL_CHARACTER_DIALOG",
        "iconText": "L_INSERT_SPECIAL_CHARACTER_DIALOG_TEXT",
        "prohibitedContextNames": [
            "picture-context"
        ]
    },
    "insert-line-break": {
        "type": "server",
        "title": "L_INSERT_LINE_BREAK",
        "iconText": "L_INSERT_LINE_BREAK_TEXT",
        "prohibitedContextNames": [
            "picture-context",
            "ro-heading-context"
        ]
    },
    "insert-image-dialog": {
        "title": "L_INSERT_IMAGE_DIALOG",
        "iconText": "L_INSERT_IMAGE_DIALOG_TEXT",
        "prohibitedContextNames": [
            "ro-table-context",
            "ro-list-context",
            "remove-heading-context",
            "picture-context",
            "picture-caption-context",
            "ro-heading-context",
            "ro-container-context"
        ]
    },
    "image-properties-dialog": {
        "title": "L_IMAGE_PROPERTIES_DIALOG",
        "iconText": "L_IMAGE_PROPERTIES_DIALOG_TEXT",
        "allowedContextNames": [
            "ro-image-context",
            "picture-context"
        ]
    },
    "insert-table-dialog": {
        "title": "L_INSERT_TABLE",
        "iconText": "L_INSERT_TABLE_TEXT",
        "iconUrl": "extensions/icons/insert-table.png",
        "prohibitedContextNames": [
            "ro-table-context",
            "ro-list-context",
            "ro-container-context",
            "remove-heading-context",
            "picture-context",
            "picture-caption-context",
            "ro-heading-context"
        ]
    },
    "insert-container": {
        "type": "server",
        "title": "L_INSERT_CONTAINER",
        "iconText": "L_INSERT_CONTAINER_TEXT",
        "prohibitedContextNames": [
            "ro-table-context",
            "ro-list-context",
            "ro-container-context",
            "remove-heading-context",
            "picture-context",
            "picture-caption-context",
            "ro-heading-context"
        ]
    },
    "delete-container": {
        "type": "server",
        "title": "L_INSERT_CONTAINER",
        "iconText": "L_INSERT_CONTAINER_TEXT",
        "prohibitedContextNames": [
            "picture-context",
            "picture-caption-context"
        ]
    },
    "insert-page-break": {
        "type": "server",
        "title": "L_INSERT_PAGE_BREAK",
        "shortcut": "msck ENTER",
        "iconText": "L_INSERT_PAGE_BREAK_TEXT",
        "prohibitedContextNames": [
            "ro-table-context",
            "ro-list-context",
            "ro-container-context",
            "remove-heading-context",
            "picture-caption-context",
            "ro-heading-context",
            "picture-context",
            "picture-caption-context"
        ]
    },
    "bold": {
        "type": "server",
        "title": "L_BOLD",
        "shortcut": "msck B",
        "iconText": "L_BOLD_TEXT",
        "iconUrl": "extensions/icons/bold.png",
        "prohibitedContextNames": [
            "ro-heading-context",
            "picture-caption-context"
        ]
    },
    "italic": {
        "type": "server",
        "title": "L_ITALIC",
        "shortcut": "msck I",
        "iconText": "L_ITALIC_TEXT",
        "iconUrl": "extensions/icons/italic.png"
    },
    "underline": {
        "type": "server",
        "title": "L_UNDERLINE",
        "shortcut": "msck U",
        "iconText": "L_UNDERLINE_TEXT",
        "iconUrl": "extensions/icons/underline.png"
    },
    "script-super": {
        "type": "server",
        "title": "L_SCRIPT_SUPER",
        "iconText": "L_SCRIPT_SUPER_TEXT",
        "iconUrl": "extensions/icons/script-super.png"
    },
    "script-sub": {
        "type": "server",
        "title": "L_SCRIPT_SUB",
        "iconText": "L_SCRIPT_SUB_TEXT",
        "iconUrl": "extensions/icons/script-sub.png"
    },
    "paste-dialog": {
        "title": "L_PASTE_DIALOG",
        "iconText": "L_PASTE_DIALOG_TEXT"
    }
}