﻿{
    "L_TABLE_TEMPLATES": "Table Templates",
    
    "L_TABLE_HEADER_TOP": "Top Header",
    
    "L_TABLE_HEADER_LEFT": "Left Header",
    
    "L_CONTAINER_TEMPLATES": "Container Templates",
    
    "L_DESCRIPTIVE_BLOCK": "Description Container",
    
    "L_PICTURE_BLOCK": "Picture Container",
    
    "L_INSERT_DATE" : "Insert Date",
    
    "L_INSERT_DATE_TEXT" : "Insert the current date",
    
    "L_BUBBLES_PANE" : "Bubbles",
    
    "L_PROOFING_PANE" : "Language",
    
    "L_INSERT_TABLE" : "Insert Table",
    
    "L_PASTE_DIALOG" : "Copy & Paste",
    
    "L_PASTE_DIALOG_TEXT" : "Copy & Paste"
}