{
    "toolbar": {
        "quickactions": [
            "new-document",
            "undo",
            "redo",
            "decrease-zoom-client",
            "zoom-100-client",
            "increase-zoom-client"
        ],
        "ribbons": {
            "options": {
                "sortabletabs": "false"
            },
            "elements": {
                "L_EDIT_TAB": {
                    "L_DOCUMENT_PANE": {
                        "subpanels": [
                            {
                                "size": "mediumPanel",
                                "actions": [
                                    "new-document",
                                    "create-pdf"
                                ]
                            }
                        ]
                    },
					"L_CLIPBOARD_PANE": {
                        "subpanels": [
                            {
                                "size": "largePanel",
                                "displaytext": "true",
                                "actions": [
                                    "paste-dialog"
                                ]
                			}
                        ]
                    },
                    "L_FORMAT_PANE": {
                        "subpanels": [
                            {
                                "size": "mediumPanel",
                                "actions": [
                                    "bold",
                                    "italic",
                                    "underline",
                                    "script-sub",
                                    "script-super"
                                ]
                            }
                        ]
                    },
                    "L_PARAGRAPH_PANE": {
                        "subpanels": [
                            {
                                "size": "mediumPanel",
                                "displaytext": "true",
                                "actions": [
                                    "toggle-heading-1",
                                    "toggle-heading-2",
                                    "toggle-paragraph",
                                    "list-ordered"
                                ]
                            }
                        ]
                    },
                    "L_INSERT_TABLE_PANE": {
                        "subpanels": [
                            {
                                "size": "mediumPanel",
                                "actions": [
                                    "insert-table-dialog",
                                    "delete-table"
                                ]
                            }
                        ]
                    },
                    "L_ROW_PANE": {
                        "subpanels": [
                            {
                                "size": "mediumPanel",
                                "actions": [
                                    "insert-row-before",
                                    "insert-row-after",
                                    "delete-row"
                                ]
                            }
                        ]
                    },
                    "L_COLUMN_PANE": {
                        "subpanels": [
                            {
                                "size": "mediumPanel",
                                "actions": [
                                    "insert-column-before",
                                    "insert-column-after",
                                    "delete-column"
                                ]
                            }
                        ]
                    },
                    "L_CELL_PANE": {
                        "subpanels": [
                            {
                                "size": "mediumPanel",
                                "actions": [
                                    "merge-cells",
                                    "split-cell-dialog"
                                ]
                            }
                        ]
                    },
                    "L_CONTAINER_PANE": {
                        "subpanels": [
                            {
                                "size": "mediumPanel",
                                "actions": [
                                    "insert-container",
                                    "delete-container"
                                ]
                            }
                        ]
                    },
                    "L_OBJECT_PANE": {
                        "subpanels": [
                            {
                                "size": "mediumPanel",
                                "actions": [
                                    "insert-image-dialog",
                                    "insert-special-character-dialog",
                                    "insert-date",
                                    "insert-page-break",
                                    "insert-line-break"
                                ]
                            }
                        ]
                    }
                },
                "L_REVIEW_TAB": {
                    "L_ANNOTATION_PANE": {
                        "subpanels": [
                            {
                                "size": "largePanel",
                                "displaytext": "true",
                                "actions": [
                                    "insert-annotation-dialog"
                                ]
                            },
                            {
                                "size": "mediumPanel",
                                "actions": [
                                    "edit-annotation-dialog",
                                    "remove-annotation"
                                ]
                            }
                        ]
                    },
                    "L_PROOFING_PANE": {
                        "subpanels": [
                            {
                                "size": "mediumPanel",
                                "actions": [
                                    "toggle-auto-spellcheck",
                                    "change-language-dialog"
                                ]
                            }
                        ]
                    },
                    "L_TRACK_PANE": {
                        "subpanels": [
                            {
                                "size": "largePanel",
                                "displaytext": "true",
                                "actions": [
                                    "track-changes"
                                ]
                            },
                            {
                                "size": "mediumPanel",
                                "displaytext": "false",
                                "actions": [
                                    "accept-change",
                                    "reject-change"
                                ]
                            },
                            {
                                "size": "mediumPanel",
                                "displaytext": "false",
                                "actions": [
                                    "accept-all-changes",
                                    "reject-all-changes"
                                ]
                            },
                            {
                                "size": "mediumPanel",
                                "displaytext": "false",
                                "actions": [
                                    "goto-prev-change",
                                    "goto-next-change"
                                ]
                            },
                            {
                                "size": "mediumPanel",
                                "displaytext": "false",
                                "actions": [
                                    
                                    "accept-change-gonext",
                                    "reject-change-gonext"
                                ]
                            }
                        ]
                    },
                    "L_VIEW_CHANGES_PANE": {
                        "subpanels": [
                            {
                                "size": "mediumPanel",
                                "actions": [
                                    "show-changes-final",
                                    "show-changes-original"
                                ]
                            },
                            {
                                "size": "mediumPanel",
                                "actions": [
                                    "show-changes-final-bubble",
                                    "show-changes-original-bubble"
                                ]
                            },
                            {
                                "size": "mediumPanel",
                                "actions": [
                                    "show-changes-mixed-inline"
                                ]
                            }
                        ]
                    },
                    "L_COLLABORATION_PANE": {
                        "subpanels": [
                            {
                                "size": "largePanel",
                                "displaytext": "true",
                                "actions": [
                                    "toggle-collab-mode"
                                ]
                            }
                        ]
                    }
                },
                "L_VIEW_TAB": {
                    "L_DOCUMENT_VIEW_PANE": {
                        "subpanels": [
                            {
                                "size": "largePanel",
                                "displaytext": "true",
                                "actions": [
                                    "page-mode-continuous",
                                    "page-mode-single-sided"
                                ]
                            }
                        ]
                    },
                    "L_MARKERS_PANE": {
                        "subpanels": [
                            {
                                "size": "mediumPanel",
                                "actions": [
                                    "toggle-show-marks-client",
                                    "toggle-show-table-grid-client",
                                    "toggle-show-container-grid-client"
                                ]
                            }
                        ]
                    },
                    "L_ZOOM_PANE": {
                        "subpanels": [
                            {
                                "size": "mediumPanel",
                                "actions": [
                                    "zoom-mode-window-width-client",
                                    "zoom-mode-window-height-client"
                                ]
                            },
                            {
                                "size": "mediumPanel",
                                "actions": [
                                    "increase-zoom-client",
                                    "decrease-zoom-client",
                                    "zoom-100-client"
                                ]
                            }
                        ]
                    },
                    "L_BUBBLES_PANE": {
                        "subpanels": [
                            {
                                "size": "mediumPanel",
                                "actions": [
                                    "show-annotations-bubbles",
                                    "show-annotations-inline"
                                ]
                            }
                        ]
                    }
                }
            }
        }
    },
    "contextmenu": [
        [
            "accept-change",
            "reject-change"
        ],
        [
            "insert-annotation-dialog"
        ],
        [
            "image-properties-dialog"
        ],
        [
            "edit-annotation-dialog"
        ],
        {
            "name": "L_CONTEXT_STYLE",
            "menuid": "stylemenu",
            "items": [
                "bold",
                "italic",
                "underline",
                "script-super",
                "script-sub"
            ]
        }
    ]
 }